{
    "columns" : [
        {
            "title" : "Category",
            "type" : null
        },
        {
            "title" : "Product",
            "type" : null
        },
        {
            "title" : "Quantity",
            "type" : null
        },
        {
            "title" : "fldsjf",
            "type" : null
        },
        {
            "title" : "sldfj",
            "type" : null
        },
        {
            "title" : "sdflsd",
            "type" : null
        }
    ]
}